{
  "project_info": {
    "project_number": "447928399185",
    "firebase_url": "https://mafia-street-wars-73342.firebaseio.com",
    "project_id": "mafia-street-wars-73342",
    "storage_bucket": "mafia-street-wars-73342.appspot.com"
  },
  "client": [
    {
      "client_info": {
        "mobilesdk_app_id": "1:447928399185:android:4aa7ccc2a5143ad8",
        "android_client_info": {
          "package_name": "com.alexriggs.android.mafiastreetwars"
        }
      },
      "oauth_client": [
        {
          "client_id": "447928399185-haguba9oinro59pn12ld3tajnki1bplc.apps.googleusercontent.com",
          "client_type": 1,
          "android_info": {
            "package_name": "com.alexriggs.android.mafiastreetwars",
            "certificate_hash": "289E4290756D7F19F13727E2A0E1E9E72E849C6C"
          }
        },
        {
          "client_id": "447928399185-pb1usrfqhjltg214sipu697r1okldh0b.apps.googleusercontent.com",
          "client_type": 3
        },
        {
          "client_id": "447928399185-9pfm040nfcgdj3324mekg6c7l3lt0trv.apps.googleusercontent.com",
          "client_type": 3
        }
      ],
      "api_key": [
        {
          "current_key": "AIzaSyB5l9NYThJIxckxGJ7itzp2pQ9QmEj4QJ4"
        }
      ],
      "services": {
        "analytics_service": {
          "status": 1
        },
        "appinvite_service": {
          "status": 2,
          "other_platform_oauth_client": [
            {
              "client_id": "447928399185-pb1usrfqhjltg214sipu697r1okldh0b.apps.googleusercontent.com",
              "client_type": 3
            }
          ]
        },
        "ads_service": {
          "status": 2
        }
      }
    }
  ],
  "configuration_version": "1"
}